“Simulating co-expression in pre-simulated scRNA-seq data with acorde”
…
names(coexpr_results)
#> [1] "sim_matrix"   "sim_clusters"

As a result, we obtain a named list including the expression matrix and the
feature IDs that go into each of the 15 clusters.

In this function, corresponds to the number of highly and lowly
expressed features that are to be selected to produce clusters, i.e. a total of
features. In this example, we selected to generate 200-feature
clusters. Given that our pattern matrix has 15 patterns, we expect to generate a
new expression matrix with 3000 synthetically co-expressed features:

# show expression matrix
coexpr_results$sim_matrix
#> # A tibble: 3,000 × 1,001
#>    feature   Cell1 Cell2 Cell3 Cell4 Cell5 Cell6 Cell7 Cell8 Cell9 Cell10 Cell11
#>    <chr>     <int> <int> <int> <int> <int> <int> <int> <int> <int>  <int>  <int>
#>  1 Feature1    232   530   206   787   108   160   113   627   311    281    482
#>  2 Feature2    595   705   875   214   396   706   141   216   676    314    691
#>  3 Feature3   1698  2458  2446  2342  2223  1637  2179  1865  2272   2054   1950
#>  4 Feature4    313   219   421   219   213   228   178   103   315    284    169
#>  5 Feature5   2452  5060  4800  3613  3126  2042  3378  4482   145   3087   4825
#>  6 Feature6    262   481   659   651   356    27   605   208   124     40    282
#>  7 Feature7      0  1069   741  1226  1525    56   903  1895     0      0   1793
#>  8 Feature8   1973  2998  2713  2419  2419  2438  1580  2569  3061   2353   2615
#>  9 Feature9    225   649   777    92   334   195   183   593  1165    272    869
#> 10 Feature10  1224  2353   897  1662  2673  2572  1894  2837  2173   2178   1745
#> # … with 2,990 more rows, and 989 more variables: Cell12 <int>, Cell13 <int>,
#> #   Cell14 <int>, Cell15 <int>, Cell16 <int>, Cell17 <int>, Cell18 <int>,
#> #   Cell19 <int>, Cell20 <int>, Cell21 <int>, Cell22 <int>, Cell23 <int>,
#> #   Cell24 <int>, Cell25 <int>, Cell26 <int>, Cell27 <int>, Cell28 <int>,
#> #   Cell29 <int>, Cell30 <int>, Cell31 <int>, Cell32 <int>, Cell33 <int>,
#> #   Cell34 <int>, Cell35 <int>, Cell36 <int>, Cell37 <int>, Cell38 <int>,
#> #   Cell39 <int>, Cell40 <int>, Cell41 <int>, Cell42 <int>, Cell43 <int>, …
…
